{
  "builders": [{
    "type": "amazon-ebs",
    "region": "ca-central-1",
    "source_ami": "ami-0df58bd52157c6e83",
    "instance_type": "t2.micro",
    "ssh_username": "ubuntu",
    "ami_name": "web-instance {{timestamp}}",
    "vpc_id": "vpc-05671531b17ebfd75",
    "subnet_id": "subnet-0c1f510208878c041"
  }],
  "provisioners": [
    {
      "type": "shell",
      "inline": ["mkdir web", "sudo apt-get update", "apt-cache depends nodejs", "curl -sL https://deb.nodesource.com/setup_14.x | sudo -E bash -", "sudo apt-get install -y nodejs-legacy"],
      "pause_before": "10s"
    },
    {
      "type": "file",
      "source" : "../web/",
      "destination" : "web"
    },

    {
    "type": "shell",
    "inline": ["cd web", "npm install"],
    "pause_before": "10s"
    }
  ]
}
